https://auto.vesti-ukr.com/img/article/442/15_main.jpg
http://www.mirage.ru/images/film/big/264002.jpg
https://img02.rl0.ru/afisha/e560x-q80i/s2.afisha.net/MediaStorage/c0/b3/4d9107600a9a4e9d9df63fa6b3c0.jpg
https://24smi.org/public/media/2017/6/29/f6b9778fd11a0589c24236ab5748065a_J44IZZk.jpg